…
TfL’s official dataset on cycle hire locations is no longer available:
<https://data.london.gov.uk/dataset/tfl-cycle-hire-locations>

However, there was a FOI made in 2020, leading to the publication of
cycle hire location data, which can be accessed from R as follows:

``` r
u = "http://foi.tfl.gov.uk/FOI-2898-1920/FOI-2898-1920.xlsx"
f = basename(u)
download.file(u, f)
stations_tfl_2020 = readxl::read_excel(f)
stations_tfl_2020
```

    ## # A tibble: 802 x 6
    ##    Station.Id StationName                    longitude latitude Easting Northing
    ##         <dbl> <chr>                              <dbl>    <dbl>   <dbl>    <dbl>
    ##  1          1 River Street, Clerkenwell        -0.110      51.5 531203.  182832.
    ##  2          2 Phillimore Gardens, Kensington   -0.198      51.5 525207.  179392.
    ##  3          3 Christopher Street, Liverpool…   -0.0846     51.5 532985.  182002.
    ##  4          4 St. Chad's Street, King's Cro…   -0.121      51.5 530437.  182912.
    ##  5          5 Sedding Street, Sloane Square    -0.157      51.5 528052.  178742.
    ##  6          6 Broadcasting House, Marylebone   -0.144      51.5 528857.  181543.
    ##  7          7 Charlbert Street, St. John's …   -0.168      51.5 527158.  183301.
    ##  8          8 Maida Vale, Maida Vale           -0.183      51.5 526102   182780 
    ##  9          9 New Globe Walk, Bankside         -0.0964     51.5 532204.  180435.
    ## 10         10 Park Street, Bankside            -0.0928     51.5 532464.  180284.
    ## # … with 792 more rows
…
